^C:\USERS\PONGO\DOCUMENTS\SCHOOL\IMGPROC\GENERAL\HOMEWORK4\IPTOOL\IPTOOL\IPTOOL.CPP|C:\USERS\PONGO\DOCUMENTS\SCHOOL\IMGPROC\GENERAL\HOMEWORK4\IPTOOL\IPTOOL\IPTOOLS\IMAGE\IMAGE.CPP|C:\USERS\PONGO\DOCUMENTS\SCHOOL\IMGPROC\GENERAL\HOMEWORK4\IPTOOL\IPTOOL\IPTOOLS\UTILITY\UTILITY.CPP
C:\USERS\PONGO\DOCUMENTS\SCHOOL\IMGPROC\GENERAL\HOMEWORK4\IPTOOL\IPTOOL\X64\DEBUG\VC141.PDB
C:\USERS\PONGO\DOCUMENTS\SCHOOL\IMGPROC\GENERAL\HOMEWORK4\IPTOOL\IPTOOL\X64\DEBUG\VC141.IDB
C:\USERS\PONGO\DOCUMENTS\SCHOOL\IMGPROC\GENERAL\HOMEWORK4\IPTOOL\IPTOOL\X64\DEBUG\IMAGE.OBJ
^C:\USERS\PONGO\DOCUMENTS\SCHOOL\IMGPROC\GENERAL\HOMEWORK4\IPTOOL\IPTOOL\IPTOOL.CPP
C:\USERS\PONGO\DOCUMENTS\SCHOOL\IMGPROC\GENERAL\HOMEWORK4\IPTOOL\IPTOOL\X64\DEBUG\VC141.PDB
^C:\USERS\PONGO\DOCUMENTS\SCHOOL\IMGPROC\GENERAL\HOMEWORK4\IPTOOL\IPTOOL\IPTOOLS\IMAGE\IMAGE.CPP
C:\USERS\PONGO\DOCUMENTS\SCHOOL\IMGPROC\GENERAL\HOMEWORK4\IPTOOL\IPTOOL\X64\DEBUG\VC141.PDB
^C:\USERS\PONGO\DOCUMENTS\SCHOOL\IMGPROC\GENERAL\HOMEWORK4\IPTOOL\IPTOOL\IPTOOLS\UTILITY\UTILITY.CPP
C:\USERS\PONGO\DOCUMENTS\SCHOOL\IMGPROC\GENERAL\HOMEWORK4\IPTOOL\IPTOOL\X64\DEBUG\VC141.PDB
C:\USERS\PONGO\DOCUMENTS\SCHOOL\IMGPROC\GENERAL\HOMEWORK4\IPTOOL\IPTOOL\X64\DEBUG\VC141.IDB
C:\USERS\PONGO\DOCUMENTS\SCHOOL\IMGPROC\GENERAL\HOMEWORK4\IPTOOL\IPTOOL\X64\DEBUG\UTILITY.OBJ
^C:\USERS\PONGO\DOCUMENTS\SCHOOL\IMGPROC\GENERAL\HOMEWORK4\IPTOOL\IPTOOL\IPTOOL.CPP|C:\USERS\PONGO\DOCUMENTS\SCHOOL\IMGPROC\GENERAL\HOMEWORK4\IPTOOL\IPTOOL\IPTOOLS\UTILITY\UTILITY.CPP
C:\USERS\PONGO\DOCUMENTS\SCHOOL\IMGPROC\GENERAL\HOMEWORK4\IPTOOL\IPTOOL\X64\DEBUG\VC141.PDB
C:\USERS\PONGO\DOCUMENTS\SCHOOL\IMGPROC\GENERAL\HOMEWORK4\IPTOOL\IPTOOL\X64\DEBUG\VC141.IDB
C:\USERS\PONGO\DOCUMENTS\SCHOOL\IMGPROC\GENERAL\HOMEWORK4\IPTOOL\IPTOOL\X64\DEBUG\UTILITY.OBJ
C:\USERS\PONGO\DOCUMENTS\SCHOOL\IMGPROC\GENERAL\HOMEWORK4\IPTOOL\IPTOOL\X64\DEBUG\IPTOOL.OBJ
