6
../input/shapessm.pgm ../output/P_shapessm_mod.pgm EdgeDet 1 0 0 300 261 20 p -1
../input/shapessm.pgm ../output/S_shapessm_mod.pgm EdgeDet 1 0 0 300 261 20 s -1
../input/us021.pgm ../output/P_us021_mod.pgm EdgeDet 1 300 30 280 430 24 p -1
../input/us021.pgm ../output/S_us021_mod.pgm EdgeDet 1 300 30 280 430 24 s -1
../input/Bikesgray.pgm ../output/P_Bikesgray_mod.pgm EdgeDet 2 180 180 250 220 12 p -1 300 50 325 120 18 p -1
../input/Bikesgray.pgm ../output/S_Bikesgray_mod.pgm EdgeDet 2 180 180 250 220 12 s -1 300 50 325 120 18 s -1